[
  {
    "id": 17,
    "category": "MATH",
    "description": "1 + 1 = ?",
    "option": [
      {
        "id": 1,
        "key": "a",
        "value": 1
      },
      {
        "id": 2,
        "key": "b",
        "value": 2
      },
      {
        "id": 3,
        "key": "c",
        "value": 3
      },
      {
        "id": 4,
        "key": "d",
        "value": 4
      }
    ],
    "answer": [
      {
        "id": 2,
        "key": "b",
        "value": 2
      }
    ]
  },
  {
    "id": 18,
    "category": "ENGLISH",
    "description": "Which is not eatable?",
    "option": [
      {
        "id": 5,
        "key": "a",
        "value": "Apple"
      },
      {
        "id": 6,
        "key": "b",
        "value": "Mop"
      },
      {
        "id": 7,
        "key": "c",
        "value": "Pencil"
      },
      {
        "id": 8,
        "key": "d",
        "value": "Melon"
      }
    ],
    "answer": [
      {
        "id": 6,
        "key": "b",
        "value": "Mop"
      },
      {
        "id": 7,
        "key": "c",
        "value": "Pencil"
      }
    ]
  },
  {
    "id": 19,
    "category": "GEOGRAPHY",
    "description": "Which city is in China?",
    "option": [
      {
        "id": 9,
        "key": "a",
        "value": "Shanghai"
      },
      {
        "id": 10,
        "key": "b",
        "value": "New york"
      },
      {
        "id": 11,
        "key": "c",
        "value": "Bangkok"
      },
      {
        "id": 12,
        "key": "d",
        "value": "Sydney"
      }
    ],
    "answer": [
      {
        "id": 9,
        "key": "a",
        "value": "Shanghai"
      }
    ]
  },
  {
    "id": 20,
    "category": "GEOGRAPHY",
    "description": "Which season is it in Australia in July?",
    "option": [
      {
        "id": 13,
        "key": "a",
        "value": "Spring"
      },
      {
        "id": 14,
        "key": "b",
        "value": "Summer"
      },
      {
        "id": 15,
        "key": "c",
        "value": "Autumn"
      },
      {
        "id": 16,
        "key": "d",
        "value": "Winter"
      }
    ],
    "answer": [
      {
        "id": 16,
        "key": "d",
        "value": "Winter"
      }
    ]
  }
]
